{"textureAsset":{"name":"/shapes/proto_floor_d",
	"stream":{"value":"/shapes/proto_floor_d.tga"},
	"platformOptions":{"name":"desktop",
		"alphaTest":{"value":"false"},
		"mipmap":{"value":"false"},
		"normalMap":{"value":"false"},
		"textureCompressed":{"value":"true"},
		"opengles":{"value":"false"},
		"lzma":{"value":"true"},
		"forceGrey":{"value":"false"},
		"removeAlpha":{"value":"false"}
	},
	"platformOptions":{"name":"mobile",
		"alphaTest":{"value":"false"},
		"mipmap":{"value":"false"},
		"normalMap":{"value":"false"},
		"textureCompressed":{"value":"true"},
		"opengles":{"value":"true"},
		"lzma":{"value":"false"},
		"forceGrey":{"value":"false"},
		"removeAlpha":{"value":"false"}
	},
	"textureParam":{
	}
}}