{"worldeditor_settings":{
	"lang":{"value":"en"},
	"gui":{
		"guiX":{"value":"251"},
		"guiY":{"value":"314"},
		"guiWidth":{"value":"1288"},
		"guiHeight":{"value":"751"}
	},
	"dialogDefaultReplies":{
	},
	"hud":{
		"folder":{"value":"D:\\dev\\bonzaiengine\\bonzaiengine-doc-editor-tutorial01\\bonzaiengine-editor-tutorial01-scripts\\bin"},
		"filter":{"value":""}
	},
	"scriptClasspath":{"value":"..\\bonzaiengine-editor-tutorial01-scripts\\bin"},
	"scriptPackage":{"value":"com.bonzaiengine.gamekit.demo.script"},
	"rotationInfo":{"type":"AxisAnglesDegree"},
	"guiGL":{
		"modelImport":{
			"openFolder":{"value":"D:\\dev\\bonzaiengine\\bonzaiengine-doc-editor-tutorial01\\bonzaiengine-editor-tutorial01-scripts\\assets"},
			"openFilter":{"value":""}
		},
		"panels":{
			"leftWidth":{"value":"225"},
			"leftVisible":{"value":"true"},
			"rightWidth":{"value":"391"},
			"rightVisible":{"value":"true"},
			"worldPanel":{"weightY":"0.5","minimized":"false","autoMinimize":"false"},
			"assetsPanel":{"weightY":"0.5","minimized":"false","autoMinimize":"false"},
			"inspectorPanel":{"weightY":"0.33333334","minimized":"false","autoMinimize":"false"},
			"optionsPanel":{"weightY":"0.3333333","minimized":"false","autoMinimize":"false"},
			"versioningPanel":{"weightY":"0.0","minimized":"true","autoMinimize":"false"},
			"hintsVisible":{"value":"true"}
		}
	},
	"gl":{
		"showSplines":{"value":"true"},
		"useShader":{"value":"true"},
		"shaderBasic":{"value":"false"}
	},
	"history":{
		"deleteUncommitedBranchOnSave":{"value":"false"}
	},
	"camera":{"type":"VolumeManipulator",
		"lookAt":{"value":"1.0;0.0;0.0;0.0;0.0;1.0;0.0;0.0;0.0;0.0;1.0;0.0;-9.670124;-6.9797044;-33.175804;1.0"},
		"lookAt2":{"value":"0.7071007;-0.40822265;0.57737595;0.0;-2.6017427E-5;0.8165108;0.57733023;0.0;-0.70711297;-0.4082456;0.57734466;0.0;-1.4142014;0.8164453;-8.751908;1.0"},
		"lookAtOrtho":{"value":"false"}
	},
	"selection":{
		"curWorld":{"value":"tutorial01"}
	},
	"clipping":{
		"enabled":{"value":"false"},
		"height":{"value":"1.0"}
	},
	"misc":{
		"showGrid":{"value":"true"}
	},
	"manipulation":{"type":"VolumeOrigin",
		"manipulationZDepth":{"value":"false"}
	},
	"animGraphs":{
	},
	"materialGraphs":{
	}
}}