newmtl alpha
Ka 0.0 0.0 0.0
Kd 1.0 1.0 1.0
Ks 1.0 1.0 1.0
Ns 128.0
map_Kd proto_alpha_d.tga
map_opacity proto_alpha_op.tga
map_normal proto_alpha_n.tga

newmtl grey
Ka 0.0 0.0 0.0
Kd 1.0 1.0 1.0
Ks 1.0 1.0 1.0
Ns 128.0
map_Kd proto_gray_d.tga
map_normal proto_gray_n.tga
map_Ks proto_gray_s.tga

newmtl blue_alpha
Ka 0.0 0.0 0.0
Kd 1.0 1.0 1.0
Ks 0.0 0.0 0.0
Tr 0.2
map_Kd proto_blue_d.tga
map_normal proto_gray_n.tga
map_Ks proto_gray_s.tga

newmtl yellow
Ka 0.0 0.0 0.0
Kd 1.0 1.0 1.0
Ks 0.0 0.0 0.0
map_Kd proto_yellow_d.tga
map_normal proto_gray_n.tga
map_Ks proto_gray_s.tga

newmtl orange
Ka 0.0 0.0 0.0
Kd 1.0 1.0 1.0
Ks 1.0 1.0 1.0
Ns 128.0
map_Kd proto_orange_d.tga
map_normal proto_gray_n.tga
map_Ks proto_gray_s.tga

newmtl floor
Ka 0.6 0.6 0.6
Kd 0.0 0.0 0.0
Ks 0.0 0.0 0.0
map_Kd proto_floor_d.tga
