{"gameObjectAsset":{
	"gameObject":{"name":"/platform",
		"hash":{"value":"0x8299d48c"},
		"transform":{
			"scl":{"value":"1.0;0.25;1.0"}
		},
		"component":{"type":"com.bonzaiengine.gamekit.component.ModelComponent",
			"hash":{"value":"0x1e045718"},
			"field":{"name":"modelInstance","type":"Model","value":"/shapes/cube"}
		},
		"component":{"type":"com.bonzaiengine.gamekit.component.CollisionShapeComponent",
			"hash":{"value":"0xdbf57e1a"},
			"field":{"name":"shape","type":"[bonzaiengine.assetrepo.gameobject.CollisionShapeAsset","value":"1",
				"field":{"name":"0","type":"bonzaiengine.assetrepo.gameobject.CollisionShapeAsset",
					"field":{"name":"params","type":"Map","value":"bonzaiengine.assetrepo.gameobject.CollisionShapeAsset$Param",
						"field":{"name":"size","type":"Vec3","value":"1.0;1.0;1.0"}
					},
					"field":{"name":"sync","type":"Boolean","value":"true"},
					"field":{"name":"type","type":"bonzaiengine.assetrepo.gameobject.CollisionShapeAsset$Type","value":"box"}
				}
			}
		},
		"component":{"type":"com.bonzaiengine.gamekit.component.RigidBodyComponent",
			"hash":{"value":"0x3db1c173"},
			"field":{"name":"kinematic","type":"Boolean","value":"true"},
			"field":{"name":"rotationMask","type":"Booleans","value":"3:0;0;1"},
			"field":{"name":"translationMask","type":"Booleans","value":"3:1;1;0"}
		},
		"component":{"type":"bonzaiengine.assetrepo.gameobject.ScriptComponentSandbox",
			"hash":{"value":"0xd698439b"},
			"field":{"name":"className","type":"String","value":".LinearMover"}
		}
	}
}}